<?xml version="1.0" encoding="UTF-8" standalone="no"?>
<svg
   viewBox="0 0 800 130"
   version="1.1"
   id="svg594"
   sodipodi:docname="banner-direct-single.svg"
   inkscape:version="1.2.2 (b0a8486541, 2022-12-01)"
   xmlns:inkscape="http://www.inkscape.org/namespaces/inkscape"
   xmlns:sodipodi="http://sodipodi.sourceforge.net/DTD/sodipodi-0.dtd"
   xmlns="http://www.w3.org/2000/svg"
   xmlns:svg="http://www.w3.org/2000/svg">
  <defs
     id="defs598" />
  <sodipodi:namedview
     id="namedview596"
     pagecolor="#ffffff"
     bordercolor="#000000"
     borderopacity="0.25"
     inkscape:showpageshadow="2"
     inkscape:pageopacity="0.0"
     inkscape:pagecheckerboard="0"
     inkscape:deskcolor="#d1d1d1"
     showgrid="false"
     inkscape:zoom="1.1253472"
     inkscape:cx="448.75039"
     inkscape:cy="35.544586"
     inkscape:window-width="1920"
     inkscape:window-height="1131"
     inkscape:window-x="0"
     inkscape:window-y="0"
     inkscape:window-maximized="1"
     inkscape:current-layer="a592" />
  <style
     id="style572">
@namespace svg url(http://www.w3.org/2000/svg);

svg {
  font-family: Helvetica, Arial, sans-serif;
  text-rendering: geometricPrecision;
}
svg|a:link, svg|a:visited {
  cursor: pointer;
}
.flag-blue {
  fill: #0056b3;
}
.flag-yellow {
  fill: #ffd700;
}
.message {
  fill: white;
  font-size: 18px;
}
.call {
  fill: black;
  font-size: 22px;
}
.arrow {
  font-size: 14px;
}
</style>
  <a
     href="https://stand-with-ukraine.pp.ua"
     id="a592">
    <rect
       x="0"
       y="0"
       width="100%"
       height="100%"
       class="flag-yellow"
       id="rect574" />
    <rect
       x="0"
       y="3.0830055e-05"
       width="100%"
       height="90"
       class="flag-blue"
       id="rect576" />
    <text
       x="0"
       y="25"
       class="message"
       id="text586"
       style="font-style:normal;font-variant:normal;font-weight:normal;font-stretch:normal;font-size:16.6667px;font-family:'Noto Sans CJK JP';-inkscape-font-specification:'Noto Sans CJK JP';letter-spacing:0.1px;white-space:pre;inline-size:719.865;display:inline"
       transform="translate(49.525836,5.5500014)"
       xml:space="preserve"><tspan
         x="0"
         y="25"
         id="tspan1263">このプロジェクトは、<tspan
   style="font-weight:bold;-inkscape-font-specification:'Noto Sans CJK JP Bold'"
   id="tspan1259">ウクライナ</tspan><tspan
   style="font-weight:bold;-inkscape-font-specification:'Noto Sans CJK JP Bold'"
   id="tspan1261">人開発者</tspan>によって開発されました。
</tspan><tspan
         x="0"
         y="45.833375"
         id="tspan1265">ロシアはウクライナへ侵攻して、何万もの市民を殺害し、数百万の人が強制移住させました。 </tspan><tspan
         x="0"
         y="66.666751"
         id="tspan1267">これは集団虐殺です。自由と民主主義、ウクライナの生存権を取り戻そう。</tspan></text>
    <text
       x="399.32346"
       y="111.8"
       dominant-baseline="middle"
       text-anchor="middle"
       class="call"
       id="text590"
       style="font-style:normal;font-variant:normal;font-weight:500;font-stretch:normal;font-size:18px;font-family:'Noto Sans CJK JP';-inkscape-font-specification:'Noto Sans CJK JP Medium'">ウクライナを救おう ➔</text>
    <text
       xml:space="preserve"
       style="font-style:normal;font-variant:normal;font-weight:bold;font-stretch:normal;font-size:17.3333px;font-family:'Noto Sans CJK JP';-inkscape-font-specification:'Noto Sans CJK JP Bold';fill:#ffffff"
       x="655.21667"
       y="31.629271"
       id="text1649"><tspan
         sodipodi:role="line"
         id="tspan1647"
         x="655.21667"
         y="31.629271" /><tspan
         sodipodi:role="line"
         id="tspan1651"
         x="655.21667"
         y="53.295895" /></text>
  </a>
</svg>
